[gd_scene load_steps=3 format=3 uid="uid://cqmsqwyv116nh"]

[ext_resource type="Script" path="res://Mob.cs" id="1_okki6"]

[sub_resource type="RectangleShape2D" id="RectangleShape2D_bdd5l"]
size = Vector2(32, 128)

[node name="Mob" type="RigidBody2D"]
position = Vector2(16, 64)
collision_mask = 0
gravity_scale = 0.0
script = ExtResource("1_okki6")
metadata/_edit_group_ = true

[node name="ColorRect" type="ColorRect" parent="."]
offset_left = -16.0
offset_top = -64.0
offset_right = 16.0
offset_bottom = 64.0
metadata/_edit_group_ = true

[node name="CollisionShape2D" type="CollisionShape2D" parent="."]
shape = SubResource("RectangleShape2D_bdd5l")

[node name="VisibleOnScreenNotifier2D" type="VisibleOnScreenNotifier2D" parent="."]
position = Vector2(0, 2.38419e-07)
scale = Vector2(1.6, 6.4)

[connection signal="screen_exited" from="VisibleOnScreenNotifier2D" to="." method="_on_visible_on_screen_notifier_2d_screen_exited"]
